^C:\USERS\WOLK1\ONEDRIVE\РАБОЧИЙ СТОЛ\NEW FOLDER (3)\QWERTY\X64\DEBUG\QWERTY.OBJ
C:\USERS\WOLK1\ONEDRIVE\Рабочий стол\NEW FOLDER (3)\QWERTY\X64\DEBUG\QWERTY.EXE
C:\USERS\WOLK1\ONEDRIVE\Рабочий стол\NEW FOLDER (3)\QWERTY\X64\DEBUG\QWERTY.ILK
C:\USERS\WOLK1\ONEDRIVE\Рабочий стол\NEW FOLDER (3)\QWERTY\X64\DEBUG\QWERTY.PDB
